Logistic Regression in Practice
…
The wells data

library(rosdata)

data(wells)

wells <- as_tibble(wells) %>% 
  mutate(switch = factor(if_else(switch == 1, "Yes", "No")))

wells

# A tibble: 3,020 × 7
   switch arsenic  dist dist100 assoc  educ educ4
   <fct>    <dbl> <dbl>   <dbl> <int> <int> <dbl>
 1 Yes       2.36  16.8   0.168     0     0  0   
 2 Yes       0.71  47.3   0.473     0     0  0   
 3 No        2.07  21.0   0.210     0    10  2.5 
 4 Yes       1.15  21.5   0.215     0    12  3   
 5 Yes       1.1   40.9   0.409     1    14  3.5 
 6 Yes       3.9   69.5   0.695     1     9  2.25
 7 Yes       2.97  80.7   0.807     1     4  1   
 8 Yes       3.24  55.1   0.551     0    10  2.5 
 9 Yes       3.28  52.6   0.526     1     0  0   
10 Yes       2.52  75.1   0.751     1     0  0   
# … with 3,010 more rows
…
