Module 2 Lab: Harvard Dialect Locator
…
res <- left_join(s, hds, by = c("item_num", "ans_ind")) %>% 
  group_by(state) %>% 
  summarize(
    likeli = prod(ans_prop)
    ) %>%
  mutate(
    prior = 1/n(),
    pdata = sum(likeli*prior),
    posterior = likeli*prior/pdata
  )

res

# A tibble: 48 × 5
   state         likeli  prior         pdata   posterior
   <chr>          <dbl>  <dbl>         <dbl>       <dbl>
 1 alabama     5.62e-13 0.0208 0.00000000797 0.00000147 
 2 arizona     2.41e- 8 0.0208 0.00000000797 0.0631     
 3 arkansas    2.82e-12 0.0208 0.00000000797 0.00000736 
 4 california  1.63e-10 0.0208 0.00000000797 0.000427   
 5 colorado    4.88e-12 0.0208 0.00000000797 0.0000127  
 6 connecticut 5.98e-10 0.0208 0.00000000797 0.00156    
 7 delaware    1.28e- 8 0.0208 0.00000000797 0.0335     
 8 florida     5.78e-11 0.0208 0.00000000797 0.000151   
 9 georgia     1.23e-13 0.0208 0.00000000797 0.000000321
10 idaho       7.89e-11 0.0208 0.00000000797 0.000206   
# ℹ 38 more rows
…
